\relax 
\providecommand\hyper@newdestlabel[2]{}
\providecommand*\new@tpo@label[2]{}
\providecommand\HyperFirstAtBeginDocument{\AtBeginDocument}
\HyperFirstAtBeginDocument{\ifx\hyper@anchor\@undefined
\global\let\oldcontentsline\contentsline
\gdef\contentsline#1#2#3#4{\oldcontentsline{#1}{#2}{#3}}
\global\let\oldnewlabel\newlabel
\gdef\newlabel#1#2{\newlabelxx{#1}#2}
\gdef\newlabelxx#1#2#3#4#5#6{\oldnewlabel{#1}{{#2}{#3}}}
\AtEndDocument{\ifx\hyper@anchor\@undefined
\let\contentsline\oldcontentsline
\let\newlabel\oldnewlabel
\fi}
\fi}
\global\let\hyper@last\relax 
\gdef\HyperFirstAtBeginDocument#1{#1}
\providecommand\HyField@AuxAddToFields[1]{}
\providecommand\HyField@AuxAddToCoFields[2]{}
\abx@aux@refcontext{none/global//global/global}
\@writefile{toc}{\boolfalse {citerequest}\boolfalse {citetracker}\boolfalse {pagetracker}\boolfalse {backtracker}\relax }
\@writefile{lof}{\boolfalse {citerequest}\boolfalse {citetracker}\boolfalse {pagetracker}\boolfalse {backtracker}\relax }
\@writefile{lot}{\boolfalse {citerequest}\boolfalse {citetracker}\boolfalse {pagetracker}\boolfalse {backtracker}\relax }
\babel@aux{UKenglish}{}
\@writefile{toc}{\contentsline {section}{\numberline {1}Introduction}{3}{section.1}}
\@writefile{toc}{\contentsline {section}{\numberline {2}Description of the ASIC Prototypes}{3}{section.2}}
\@writefile{toc}{\contentsline {subsection}{\numberline {2.1}LAUROC0}{3}{subsection.2.1}}
\@writefile{toc}{\contentsline {subsection}{\numberline {2.2}HLC1}{3}{subsection.2.2}}
\providecommand*\caption@xref[2]{\@setref\relax\@undefined{#1}}
\newlabel{hlc1_layout}{{\caption@xref {hlc1_layout}{ on input line 13}}{4}{HLC1}{figure.caption.1}{}}
\newlabel{hlc1_die_photo}{{\caption@xref {hlc1_die_photo}{ on input line 14}}{4}{HLC1}{figure.caption.1}{}}
\@writefile{lof}{\contentsline {figure}{\numberline {1}{\ignorespaces Left: Layout of the HLC1 ASIC; Right: Photo of the die of the HLC1 ASIC.\relax }}{4}{figure.caption.1}}
\newlabel{hlc1_layout}{{1}{4}{Left: Layout of the HLC1 ASIC; Right: Photo of the die of the HLC1 ASIC.\relax }{figure.caption.1}{}}
\@writefile{lot}{\contentsline {table}{\numberline {1}{\ignorespaces Design specifications of the HLC1 ASIC\relax }}{4}{table.caption.2}}
\newlabel{hlc1_specs}{{1}{4}{Design specifications of the HLC1 ASIC\relax }{table.caption.2}{}}
\@writefile{toc}{\contentsline {section}{\numberline {3}Test Bench}{4}{section.3}}
\@writefile{toc}{\contentsline {subsection}{\numberline {3.1}Front-End Test Board}{4}{subsection.3.1}}
\@writefile{lof}{\contentsline {figure}{\numberline {2}{\ignorespaces Block diagram of the analog front-end test stand.\relax }}{5}{figure.caption.3}}
\newlabel{fetb_bd}{{2}{5}{Block diagram of the analog front-end test stand.\relax }{figure.caption.3}{}}
\@writefile{lof}{\contentsline {figure}{\numberline {3}{\ignorespaces Photo of the front-end test stand with HLC1 test board. \relax }}{6}{figure.caption.4}}
\newlabel{test_stand_photo}{{3}{6}{Photo of the front-end test stand with HLC1 test board. \relax }{figure.caption.4}{}}
\@writefile{toc}{\contentsline {subsection}{\numberline {3.2}Toy Calorimeter Board}{6}{subsection.3.2}}
\@writefile{toc}{\contentsline {subsection}{\numberline {3.3}Front-End Mezzanine}{6}{subsection.3.3}}
\@writefile{toc}{\contentsline {subsection}{\numberline {3.4}DAQ Board}{6}{subsection.3.4}}
\@writefile{lof}{\contentsline {figure}{\numberline {4}{\ignorespaces Photo of the HLC1 test board.\relax }}{7}{figure.caption.5}}
\newlabel{hlc1_tb_photo}{{4}{7}{Photo of the HLC1 test board.\relax }{figure.caption.5}{}}
\@writefile{toc}{\contentsline {section}{\numberline {4}Characterization of the Prototypes}{7}{section.4}}
\@writefile{toc}{\contentsline {subsection}{\numberline {4.1}LAUROC0}{7}{subsection.4.1}}
\@writefile{toc}{\contentsline {subsubsection}{\numberline {4.1.1}input impedance tuning}{7}{subsubsection.4.1.1}}
\@writefile{toc}{\contentsline {subsubsection}{\numberline {4.1.2}Linearity measurement}{7}{subsubsection.4.1.2}}
\@writefile{toc}{\contentsline {subsubsection}{\numberline {4.1.3}Charachterization of the Internal Discriminator}{7}{subsubsection.4.1.3}}
\@writefile{toc}{\contentsline {subsubsection}{\numberline {4.1.4}Noise Measurement}{8}{subsubsection.4.1.4}}
\@writefile{toc}{\contentsline {paragraph}{\nonumberline Setup}{8}{section*.6}}
\@writefile{toc}{\contentsline {paragraph}{\nonumberline Methods}{8}{section*.7}}
\@writefile{toc}{\contentsline {paragraph}{\nonumberline Results}{8}{section*.8}}
\@writefile{lot}{\contentsline {table}{\numberline {2}{\ignorespaces ENI measurement results for 25A, 50B and 25\_50 channel of LAUROC0.\relax }}{8}{table.caption.9}}
\newlabel{tab:lauroc_noise}{{2}{8}{ENI measurement results for 25A, 50B and 25\_50 channel of LAUROC0.\relax }{table.caption.9}{}}
\@writefile{toc}{\contentsline {subsubsection}{\numberline {4.1.5}Cross-talk}{9}{subsubsection.4.1.5}}
\@writefile{toc}{\contentsline {paragraph}{\nonumberline Setup}{9}{section*.10}}
\@writefile{toc}{\contentsline {paragraph}{\nonumberline Method}{9}{section*.11}}
\@writefile{toc}{\contentsline {paragraph}{\nonumberline Results}{9}{section*.12}}
\@writefile{lot}{\contentsline {table}{\numberline {3}{\ignorespaces Crosstalk measurement results when injecting current into channel 25A and 50B of LAUROC0.\relax }}{9}{table.caption.13}}
\newlabel{tab:lauroc_crosstalk}{{3}{9}{Crosstalk measurement results when injecting current into channel 25A and 50B of LAUROC0.\relax }{table.caption.13}{}}
\@writefile{toc}{\contentsline {subsection}{\numberline {4.2}HLC1}{9}{subsection.4.2}}
\@writefile{toc}{\contentsline {subsubsection}{\numberline {4.2.1}input impedance tuning}{9}{subsubsection.4.2.1}}
\@writefile{toc}{\contentsline {subsubsection}{\numberline {4.2.2}Linearity measurement}{10}{subsubsection.4.2.2}}
\@writefile{toc}{\contentsline {subsubsection}{\numberline {4.2.3}Noise Measurement}{10}{subsubsection.4.2.3}}
\@writefile{toc}{\contentsline {paragraph}{\nonumberline Setup}{10}{section*.14}}
\@writefile{toc}{\contentsline {paragraph}{\nonumberline Method}{10}{section*.15}}
\@writefile{toc}{\contentsline {paragraph}{\nonumberline Results}{10}{section*.16}}
\@writefile{lot}{\contentsline {table}{\numberline {4}{\ignorespaces Full system equivalent noise current of HLC1 (Unit: $nA$).\relax }}{10}{table.caption.17}}
\newlabel{tab:hlc1_eni_before_sub}{{4}{10}{Full system equivalent noise current of HLC1 (Unit: $nA$).\relax }{table.caption.17}{}}
\@writefile{lot}{\contentsline {table}{\numberline {5}{\ignorespaces Equivalent noise current of HLC1 after quadratic subtraction (Unit: $nA$).\relax }}{11}{table.caption.18}}
\newlabel{tab:hlc1_eni_after_sub}{{5}{11}{Equivalent noise current of HLC1 after quadratic subtraction (Unit: $nA$).\relax }{table.caption.18}{}}
\@writefile{toc}{\contentsline {subsubsection}{\numberline {4.2.4}Summing Outputs}{11}{subsubsection.4.2.4}}
\@writefile{toc}{\contentsline {paragraph}{\nonumberline Setup}{11}{section*.19}}
\@writefile{toc}{\contentsline {paragraph}{\nonumberline Methods}{11}{section*.20}}
\@writefile{toc}{\contentsline {paragraph}{\nonumberline Results}{11}{section*.21}}
\@writefile{lot}{\contentsline {table}{\numberline {6}{\ignorespaces Summary of saturation point and gain of the summing outputs of HLC1.\relax }}{11}{table.caption.22}}
\newlabel{tab:hlc1_sum_test_res}{{6}{11}{Summary of saturation point and gain of the summing outputs of HLC1.\relax }{table.caption.22}{}}
\@writefile{toc}{\contentsline {subsubsection}{\numberline {4.2.5}Cross-talk}{12}{subsubsection.4.2.5}}
\@writefile{toc}{\contentsline {paragraph}{\nonumberline Setup}{12}{section*.23}}
\@writefile{toc}{\contentsline {paragraph}{\nonumberline Methods}{12}{section*.24}}
\@writefile{toc}{\contentsline {paragraph}{\nonumberline Results}{12}{section*.25}}
\@writefile{lot}{\contentsline {table}{\numberline {7}{\ignorespaces Crosstalk measurement results for HLC1.\relax }}{12}{table.caption.26}}
\newlabel{tab:hlc1_crosstalk_res}{{7}{12}{Crosstalk measurement results for HLC1.\relax }{table.caption.26}{}}
\@writefile{toc}{\contentsline {subsection}{\numberline {4.3}Summary and Comparison}{13}{subsection.4.3}}
\@writefile{toc}{\contentsline {section}{\numberline {5}Conclusion}{13}{section.5}}
\@writefile{toc}{\contentsline {part}{Appendices}{15}{part*.29}}
